Name,Description,Slug,ProductType
Tekuci Racun,tekuci racun ,tekuci-racun,1
Kes Kredit,kes kredit,kes-kredit,1
Auto Kredit,auto kredit,auto-kredit,1
Stambeni Kredit,stambeni kredit,stambeni-kredit,1
Platne kartice,platne kartice,platne-kartice,1
Stednja,stednja,stednja,1
